Chapter 6 데이터 랭글링 | R 프로그래밍
…
# airports 테이블: 각 공항에 대한 정보가 faa 공항 코드로 식별됨
airports

## # A tibble: 1,458 × 8
##    faa   name                             lat    lon   alt    tz dst   tzone              
##    <chr> <chr>                          <dbl>  <dbl> <dbl> <dbl> <chr> <chr>              
##  1 04G   Lansdowne Airport               41.1  -80.6  1044    -5 A     America/New_York   
##  2 06A   Moton Field Municipal Airport   32.5  -85.7   264    -6 A     America/Chicago    
##  3 06C   Schaumburg Regional             42.0  -88.1   801    -6 A     America/Chicago    
##  4 06N   Randall Airport                 41.4  -74.4   523    -5 A     America/New_York   
##  5 09J   Jekyll Island Airport           31.1  -81.4    11    -5 A     America/New_York   
##  6 0A9   Elizabethton Municipal Airport  36.4  -82.2  1593    -5 A     America/New_York   
##  7 0G6   Williams County Airport         41.5  -84.5   730    -5 A     America/New_York   
##  8 0G7   Finger Lakes Regional Airport   42.9  -76.8   492    -5 A     America/New_York   
##  9 0P2   Shoestring Aviation Airfield    39.8  -76.6  1000    -5 U     America/New_York   
## 10 0S9   Jefferson County Intl           48.1 -123.    108    -8 A     America/Los_Angeles
## # ℹ 1,448 more rows

# planes 테이블: 각 여객기에 대한 정보가 tailnum으로 식별됨
planes

## # A tibble: 3,322 × 9
##    tailnum  year type                    manufacturer     model     engines seats speed engine   
##    <chr>   <int> <chr>                   <chr>            <chr>       <int> <int> <int> <chr>    
##  1 N10156   2004 Fixed wing multi engine EMBRAER          EMB-145XR       2    55    NA Turbo-fan
##  2 N102UW   1998 Fixed wing multi engine AIRBUS INDUSTRIE A320-214        2   182    NA Turbo-fan
##  3 N103US   1999 Fixed wing multi engine AIRBUS INDUSTRIE A320-214        2   182    NA Turbo-fan
##  4 N104UW   1999 Fixed wing multi engine AIRBUS INDUSTRIE A320-214        2   182    NA Turbo-fan
##  5 N10575   2002 Fixed wing multi engine EMBRAER          EMB-145LR       2    55    NA Turbo-fan
##  6 N105UW   1999 Fixed wing multi engine AIRBUS INDUSTRIE A320-214        2   182    NA Turbo-fan
##  7 N107US   1999 Fixed wing multi engine AIRBUS INDUSTRIE A320-214        2   182    NA Turbo-fan
##  8 N108UW   1999 Fixed wing multi engine AIRBUS INDUSTRIE A320-214        2   182    NA Turbo-fan
##  9 N109UW   1999 Fixed wing multi engine AIRBUS INDUSTRIE A320-214        2   182    NA Turbo-fan
## 10 N110UW   1999 Fixed wing multi engine AIRBUS INDUSTRIE A320-214        2   182    NA Turbo-fan
## # ℹ 3,312 more rows

# weather 테이블: 각 NYC 공항의 매 시각 날씨 정보
weather

## # A tibble: 26,115 × 15
##    origin  year month   day  hour  temp  dewp humid wind_dir wind_speed wind_gust precip pressure visib time_hour          
##    <chr>  <int> <int> <int> <int> <dbl> <dbl> <dbl>    <dbl>      <dbl>     <dbl>  <dbl>    <dbl> <dbl> <dttm>             
##  1 EWR     2013     1     1     1  39.0  26.1  59.4      270      10.4         NA      0    1012     10 2013-01-01 01:00:00
##  2 EWR     2013     1     1     2  39.0  27.0  61.6      250       8.06        NA      0    1012.    10 2013-01-01 02:00:00
##  3 EWR     2013     1     1     3  39.0  28.0  64.4      240      11.5         NA      0    1012.    10 2013-01-01 03:00:00
##  4 EWR     2013     1     1     4  39.9  28.0  62.2      250      12.7         NA      0    1012.    10 2013-01-01 04:00:00
##  5 EWR     2013     1     1     5  39.0  28.0  64.4      260      12.7         NA      0    1012.    10 2013-01-01 05:00:00
##  6 EWR     2013     1     1     6  37.9  28.0  67.2      240      11.5         NA      0    1012.    10 2013-01-01 06:00:00
##  7 EWR     2013     1     1     7  39.0  28.0  64.4      240      15.0         NA      0    1012.    10 2013-01-01 07:00:00
##  8 EWR     2013     1     1     8  39.9  28.0  62.2      250      10.4         NA      0    1012.    10 2013-01-01 08:00:00
##  9 EWR     2013     1     1     9  39.9  28.0  62.2      260      15.0         NA      0    1013.    10 2013-01-01 09:00:00
## 10 EWR     2013     1     1    10  41    28.0  59.6      260      13.8         NA      0    1012.    10 2013-01-01 10:00:00
## # ℹ 26,105 more rows
…
